EESchema Schematic File Version 4
EELAYER 30 0
EELAYER END
$Descr A4 11693 8268
encoding utf-8
Sheet 1 1
Title ""
Date ""
Rev ""
Comp ""
Comment1 ""
Comment2 ""
Comment3 ""
Comment4 ""
$EndDescr
Text Notes 7000 6650 0    50   ~ 0
By Aadil Eyasim - EYSMUH002
Text Notes 7350 7500 0    50   ~ 0
LED Schematic for RPi Zero
Text Notes 8100 7650 0    50   ~ 0
KiCAD Schem made on 11/06/2021
$Comp
L pspice:VSOURCE V?
U 1 1 60C3666E
P 3800 3100
F 0 "V?" H 4028 3146 50  0000 L CNN
F 1 "VSOURCE" H 4028 3055 50  0000 L CNN
F 2 "" H 3800 3100 50  0001 C CNN
F 3 "~" H 3800 3100 50  0001 C CNN
	1    3800 3100
	1    0    0    -1  
$EndComp
$Comp
L power:GND #PWR?
U 1 1 60C36ADB
P 6700 3700
F 0 "#PWR?" H 6700 3450 50  0001 C CNN
F 1 "GND" H 6705 3527 50  0000 C CNN
F 2 "" H 6700 3700 50  0001 C CNN
F 3 "" H 6700 3700 50  0001 C CNN
	1    6700 3700
	1    0    0    -1  
$EndComp
$Comp
L Device:R_Small_US R?
U 1 1 60C3724A
P 5150 2250
F 0 "R?" V 4945 2250 50  0000 C CNN
F 1 "R_Small_US" V 5036 2250 50  0000 C CNN
F 2 "" H 5150 2250 50  0001 C CNN
F 3 "~" H 5150 2250 50  0001 C CNN
	1    5150 2250
	0    1    1    0   
$EndComp
$Comp
L pspice:DIODE D?
U 1 1 60C380D8
P 5950 1700
F 0 "D?" H 5950 1435 50  0000 C CNN
F 1 "DIODE" H 5950 1526 50  0000 C CNN
F 2 "" H 5950 1700 50  0001 C CNN
F 3 "~" H 5950 1700 50  0001 C CNN
	1    5950 1700
	-1   0    0    1   
$EndComp
$Comp
L pspice:DIODE D?
U 1 1 60C391C9
P 5950 2550
F 0 "D?" H 5950 2285 50  0000 C CNN
F 1 "DIODE" H 5950 2376 50  0000 C CNN
F 2 "" H 5950 2550 50  0001 C CNN
F 3 "~" H 5950 2550 50  0001 C CNN
	1    5950 2550
	1    0    0    -1  
$EndComp
Wire Wire Line
	3800 2800 3800 2250
Wire Wire Line
	3800 2250 5050 2250
Wire Wire Line
	5250 2250 5500 2250
Wire Wire Line
	5500 2250 5500 1700
Wire Wire Line
	5500 1700 5750 1700
Wire Wire Line
	5500 2250 5500 2550
Wire Wire Line
	5500 2550 5750 2550
Connection ~ 5500 2250
Wire Wire Line
	6150 1700 6450 1700
Wire Wire Line
	6450 2550 6150 2550
Wire Wire Line
	6450 1700 6450 2250
Wire Wire Line
	6700 3400 6700 2250
Wire Wire Line
	6700 2250 6450 2250
Connection ~ 6450 2250
Wire Wire Line
	6450 2250 6450 2550
Wire Wire Line
	3800 3400 6700 3400
Wire Wire Line
	6700 3400 6700 3700
Connection ~ 6700 3400
$EndSCHEMATC
